{
  "cviceni": {
    "version": {
      "global": "<%= version %>",
      "content": 4
    },
    "katalog": [
      "test",
      "public"
    ],
    "language": "cs",
    "slug": "napalm-girl",
    "nazev": "Napalm Girl",
    "autor": [
      "Kamil Činátl"
    ],
    "klicovaSlova": {
      "rvp": [
        "střetávání západního a východního bloku"
      ],
      "koncept": [
        "symboly"
      ],
      "b4": [
        "vztah k minulosti"
      ],
      "historylab": [
        "hledáme klíčové detaily"
      ]
    },
    "casovaOsa": {
      "roky": [
        1972
      ],
      "epochy": [
        {
          "refId": "czech",
          "obdobi": []
        },
        {
          "refId": "world",
          "obdobi": [
            "studená válka a rozpad koloniálních říší"
          ]
        }
      ]
    },
    "anotace": {
      "ucitel": "Cvičení seznamuje žáky s ikonickou fotografií vietnamské dívky popálené napalmem. Zveřejnění záběru utvrdilo protiválečné postoje americké veřejnosti a snímek dodnes symbolizuje dopad války na životy obyvatel Vietnamu. Srovnání dvou verzí slavného snímku směřuje žáky k tomu, aby se zamýšleli nad důvěryhodností fotografie a nad rolí zpravodajských médií ve válečných konfliktech.",
      "verejna": "Jedna fotka ovlivnila názory milionů lidí. Jak ovlivní vás? A jaký příběh se za ní skrývá? Odehrála se situace tak, jak fotografie prezentuje, nebo trochu jinak? Pojďte prozkoumat jednu z nejikoničtějších fotografií 20. století."
    },
    "trvani": 35,
    "obtiznost": "střední",
    "funkce": [
      "lupa",
      "svg",
      "text",
      "kresleni",
      "znacky"
    ],
    "pdf": {
      "doporucenyPostup": "napalm-girl.pdf"
    },
    "uvodniObrazek": "napalm-girl/pic-00-1280w.jpg",
    "id": 20
  },
  "slajd": [
    {
      "class": "half-slide-previous",
      "zadani": {
        "hlavni": "Prohlédněte si fotografii.",
        "rozsirujici": ""
      },
      "napoveda": {
        "aktivity": [
          "lupa"
        ],
        "text": ""
      },
      "prameny": [
        "napalm-girl/pic-00-1280w.jpg"
      ],
      "popisky": [
        "1972. Foto Nick Ut. Zdroj: ČTK/AP"
      ]
    },
    {
      "class": [
        "half-slide-active"
      ],
      "zadani": {
        "hlavni": "Jaké pocity ve vás snímek vyvolává?",
        "rozsirujici": ""
      },
      "napoveda": {
        "aktivity": [
          "text"
        ],
        "text": "Do boxu pro text zapisujete odpověď na otázku, nebo jiný komentář (dle zadání)."
      },
      "uzivatelskyText": {
        "otazky": [
          {
            "id": "text-1",
            "zadani": "",
            "instrukce": "Myslím si, že…",
            "maxDelka": 500
          }
        ]
      }
    },
    {
      "zadani": {
        "hlavni": "Označte na fotografii prvky, které jsou důležité pro pochopení fotografie, a popište je.",
        "rozsirujici": ""
      },
      "napoveda": {
        "aktivity": [
          "svg"
        ],
        "text": [
          "Kliknutím na snímek levým tlačítkem myši označujete bod. Nakliknutím na bod pravým tlačítkem otevřete menu s nabídkou úkonů: změnit barvu bodu, (T) doplnit textový komentář, (X) smazat nakliknutý objekt."
        ]
      },
      "popisky": [
        "Fotografie Nicka Uta byla pořízena 8. června 1972 při náletu jihovietnamského letectva na vesnici Trang Bang. Dívka Kim Phuc je popálena napalmem. Fotografie oblétla svět a vžil se pro ni název „Napalm Girl“. Foto Nick Ut. Zdroj: ČTK/AP"
      ],
      "svg": {
        "soubory": [
          {
            "id": "svg-1",
            "soubor": "napalm-girl/pic-00-1280w.jpg",
            "funkce": [
              "text",
              "znacky"
            ]
          }
        ]
      }
    },
    {
      "class": [
        "half-slide-previous"
      ],
      "zadani": {
        "hlavni": "Porovnejte publikovanou fotografii s její původní verzí.",
        "rozsirujici": "Zakreslete rozdíly, které na fotografiích nacházíte, a popište je.​"
      },
      "napoveda": {
        "aktivity": [
          "svg"
        ],
        "text": "Tahem myši levým tlačítkem kreslíte do obrazu. Nakliknutím na nakreslený tvar pravým tlačítkem otevřete menu s nabídkou úkonů: změnit barvu tvaru, (T) doplnit textový komentář, (X) smazat nakliknutý objekt."
      },
      "popisky": [
        "Fotografie Nicka Uta byla pořízena 8. června 1972 při náletu jihovietnamského letectva na vesnici Trang Bang. Dívka Kim Phuc je popálena napalmem. Fotografie oblétla svět a vžil se pro ni název „Napalm Girl“. Foto Nick Ut. Zdroj: ČTK/AP"
      ],
      "svg": {
        "soubory": [
          {
            "id": "svg-2",
            "soubor": "napalm-girl/pic-00-1024w.jpg",
            "funkce": [
              "text",
              "kresleni"
            ]
          },
          {
            "id": "svg-3",
            "soubor": "napalm-girl/pic-01-1024w.jpg",
            "funkce": [
              "text",
              "kresleni"
            ]
          }
        ]
      }
    },
    {
      "class": [
        "half-slide-active"
      ],
      "zadani": {
        "hlavni": "Přemýšlejte o historickém vlivu fotografie.",
        "rozsirujici": ""
      },
      "napoveda": {
        "aktivity": [
          "text"
        ],
        "text": "Do boxu pro text zapisujete odpověď na otázku, nebo jiný komentář (dle zadání)."
      },
      "uzivatelskyText": {
        "otazky": [
          {
            "id": "text-2",
            "zadani": "Proč fotograf snímek upravil? Jak se změnilo vyznění fotografie?",
            "instrukce": "Myslím si, že…",
            "maxDelka": 750
          },
          {
            "id": "text-3",
            "zadani": "Proč se snímek stal symbolem vietnamské války?",
            "instrukce": "Myslím si, že…",
            "maxDelka": 750
          }
        ]
      }
    }
  ]
}
