{
  "cviceni": {
    "version": {
      "global": "<%= version %>",
      "content": 1
    },
    "slug": "co-oslavovali",
    "nazev": "Co oslavovali?",
    "autor": [
      ""
    ],
    "klicovaSlova": {
      "rvp": [],
      "koncept": [],
      "b4": [],
      "historylab": []
    },
    "casovaOsa": {
      "roky": [],
      "epochy": [
        {
          "refId": "czech",
          "obdobi": []
        },
        {
          "refId": "world",
          "obdobi": []
        }
      ]
    },
    "anotace": {
      "ucitel": "",
      "verejna": ""
    },
    "trvani": 30,
    "obtiznost": "",
    "funkce": [
      "lupa",
      "text",
      "svg",
      "kresleni"
    ],
    "uvodniObrazek": "co-oslavovali/pic-00-1280w.jpg",
    "id": 36
  },
  "slajd": [
    {
      "class": [],
      "zadani": {
        "hlavni": "Prohlédněte si fotografii.",
        "rozsirujici": ""
      },
      "napoveda": {
        "aktivity": [
          "lupa"
        ],
        "text": "Při kliknutí levým tlačítkem do obrazu lupa přiblíží část obrazu ve výřezu."
      },
      "prameny": [
        "co-oslavovali/pic-00-1280w.jpg"
      ]
    },
    {
      "class": [
        "half-slide-previous"
      ],
      "zadani": {
        "hlavni": "Popis fotografie.",
        "rozsirujici": "Označte důležité prvky na fotografii a popište je."
      },
      "napoveda": {
        "aktivity": [
          "svg"
        ],
        "text": "Tahem myši levým tlačítkem kreslíte do obrazu. Nakliknutím na nakreslený tvar pravým tlačítkem otevřete menu s nabídkou úkonů: změnit barvu tvaru, (T) doplnit textový komentář, (X) smazat nakliknutý objekt."
      },
      "svg": {
        "soubory": [
          {
            "id": "popis-svg-1",
            "soubor": "co-oslavovali/pic-00-1280w.jpg",
            "funkce": [
              "text",
              "kresleni"
            ]
          }
        ]
      }
    },
    {
      "class": [
        "half-slide-active"
      ],
      "zadani": {
        "hlavni": "Popište, co se děje na fotografii.",
        "rozsirujici": ""
      },
      "napoveda": {
        "aktivity": [
          "text"
        ],
        "text": "Do boxu pro text zapisujete odpověď na otázku, nebo jiný komentář (dle zadání)."
      },
      "uzivatelskyText": {
        "otazky": [
          {
            "id": "popis-analyza-1",
            "zadani": "Kdo se účastnil oslavy?",
            "instrukce": "Myslím si, že…",
            "minDelka": 0,
            "maxDelka": 400
          },
          {
            "id": "popis-analyza-2",
            "zadani": "Určíte místo a období?",
            "instrukce": "Myslím si, že…",
            "minDelka": 0,
            "maxDelka": 400
          }
        ]
      }
    },
    {
      "class": [
        "half-slide-previous"
      ],
      "zadani": {
        "hlavni": "Přečtěte si dobový popisek k fotografii.",
        "rozsirujici": "Označte klíčové pasáže a popište, co nového jste o snímku zjistili."
      },
      "napoveda": {
        "aktivity": [
          "svg"
        ],
        "text": "Tahem myši levým tlačítkem kreslíte do obrazu. Nakliknutím na nakreslený tvar pravým tlačítkem otevřete menu s nabídkou úkonů: změnit barvu tvaru, (T) doplnit textový komentář, (X) smazat nakliknutý objekt."
      },
      "svg": {
        "soubory": [
          {
            "id": "popis-svg-2",
            "soubor": "co-oslavovali/pic-01-1280w.jpg",
            "funkce": [
              "text",
              "kresleni"
            ]
          }
        ]
      },
      "popisky": [
        "Katalogizační list Muzea dělnického hnutí v Praze. (Národní muzeum)"
      ]
    },
    {
      "class": [
        "half-slide-active"
      ],
      "zadani": {
        "hlavni": "Otázky.",
        "rozsirujici": ""
      },
      "napoveda": {
        "aktivity": [
          "text"
        ],
        "text": "Do boxu pro text zapisujete odpověď na otázku, nebo jiný komentář (dle zadání)."
      },
      "uzivatelskyText": {
        "otazky": [
          {
            "id": "popis-interpretace-1",
            "zadani": "Jaký měla oslava podle vás smysl?",
            "instrukce": "Myslím si, že…",
            "minDelka": 0,
            "maxDelka": 400
          },
          {
            "id": "popis-interpretace-2",
            "zadani": "Co byste se o události nebo fotografii chtěli ještě dozvědět?",
            "instrukce": "Myslím si, že…",
            "minDelka": 0,
            "maxDelka": 400
          }
        ]
      }
    }
  ]
}
